Introduction to broom.mixed
…
Capabilities

Automatically retrieve table of available methods:

get_methods()

## # A tibble: 27 × 4
##    class       tidy  glance augment
##    <chr>       <lgl> <lgl>  <lgl>  
##  1 MCMCglmm    TRUE  FALSE  FALSE  
##  2 MixMod      TRUE  FALSE  FALSE  
##  3 TMB         TRUE  TRUE   FALSE  
##  4 VarCorr.lme TRUE  FALSE  FALSE  
##  5 allFit      TRUE  TRUE   FALSE  
##  6 brmsfit     TRUE  TRUE   TRUE   
##  7 clmm        FALSE FALSE  TRUE   
##  8 gamlss      TRUE  TRUE   FALSE  
##  9 gamm4       TRUE  TRUE   TRUE   
## 10 glmm        TRUE  FALSE  FALSE  
## # ℹ 17 more rows
…
